CT1865:360           10.553    9.806    8.942    8.061    7.195    6.420
    5.752    5.213    4.819    4.591    4.507    4.549    4.692    4.912
    5.164    5.410    5.609    5.712    5.689    5.496    5.089    4.394
    3.405    2.104    0.501   -1.442   -3.583   -5.815   -8.097
CT1865:355           10.488    9.790    8.987    8.172    7.379    6.682
    6.093    5.633    5.314    5.154    5.127    5.215    5.391    5.628
    5.884    6.120    6.295    6.363    6.293    6.045    5.575    4.813
    3.755    2.387    0.718   -1.286   -3.484   -5.768   -8.098
CT1865:350           10.488    9.826    9.078    8.325    7.603    6.983
    6.474    6.093    5.849    5.753    5.780    5.908    6.110    6.358
    6.609    6.827    6.970    6.992    6.865    6.551    6.008    5.172
    4.041    2.605    0.875   -1.177   -3.415   -5.734   -8.086
CT1865:345           10.574    9.932    9.225    8.523    7.863    7.314
    6.879    6.571    6.395    6.357    6.430    6.589    6.808    7.056
    7.293    7.484    7.586    7.553    7.360    6.971    6.348    5.432
    4.227    2.728    0.947   -1.139   -3.398   -5.729   -8.080
CT1865:340           10.567    9.958    9.302    8.656    8.063    7.586
    7.224    6.987    6.874    6.887    6.996    7.176    7.401    7.640
    7.853    8.007    8.060    7.965    7.699    7.230    6.525    5.529
    4.253    2.696    0.873   -1.236   -3.503   -5.835   -8.174
CT1865:335           10.747   10.131    9.493    8.876    8.323    7.895
    7.584    7.395    7.324    7.367    7.492    7.674    7.886    8.098
    8.273    8.379    8.374    8.212    7.875    7.330    6.551    5.489
    4.161    2.569    0.732   -1.368   -3.610   -5.906   -8.196
CT1865:330           10.722   10.129    9.525    8.947    8.439    8.058
    7.792    7.642    7.601    7.659    7.783    7.949    8.131    8.300
    8.421    8.467    8.396    8.163    7.754    7.140    6.298    5.185
    3.823    2.214    0.379   -1.697   -3.902   -6.156   -8.398
CT1865:325           10.797   10.199    9.603    9.037    8.547    8.185
    7.936    7.798    7.758    7.803    7.900    8.024    8.151    8.254
    8.303    8.272    8.125    7.821    7.347    6.677    5.791    4.653
    3.283    1.686   -0.119   -2.147   -4.295   -6.489   -8.673
CT1865:320           10.750   10.158    9.572    9.016    8.535    8.178
    7.928    7.780    7.719    7.729    7.776    7.836    7.889    7.907
    7.867    7.750    7.522    7.149    6.619    5.912    5.009    3.878
    2.536    0.987   -0.753   -2.701   -4.763   -6.870   -8.970
CT1865:315           10.578   10.003    9.426    8.876    8.393    8.026
    7.755    7.576    7.471    7.422    7.397    7.373    7.331    7.248
    7.105    6.890    6.576    6.134    5.558    4.829    3.928    2.826
    1.535    0.053   -1.608   -3.471   -5.450   -7.480   -9.524
CT1865:310           10.509    9.922    9.326    8.752    8.239    7.830
    7.508    7.267    7.090    6.958    6.839    6.713    6.562    6.366
    6.114    5.798    5.400    4.900    4.293    3.563    2.694    1.656
    0.452   -0.923   -2.465   -4.201   -6.055   -7.962   -9.896
CT1865:305           10.297    9.714    9.104    8.507    7.956    7.494
    7.107    6.790    6.527    6.297    6.074    5.837    5.572    5.261
    4.900    4.485    4.007    3.455    2.826    2.107    1.282    0.319
   -0.786   -2.046   -3.465   -5.075   -6.810   -8.606  -10.451
CT1865:300           10.204    9.593    8.940    8.291    7.677    7.137
    6.662    6.248    5.881    5.542    5.207    4.857    4.478    4.058
    3.595    3.091    2.544    1.951    1.312    0.615   -0.154   -1.028
   -2.021   -3.152   -4.430   -5.896   -7.490   -9.149  -10.872
CT1865:295           10.311    9.626    8.891    8.156    7.448    6.804
    6.219    5.689    5.204    4.749    4.299    3.839    3.355    2.837
    2.285    1.704    1.099    0.473   -0.172   -0.844   -1.559   -2.349
   -3.236   -4.246   -5.394   -6.724   -8.186   -9.716  -11.322
CT1865:290           10.201    9.477    8.685    7.884    7.097    6.361
    5.675    5.040    4.448    3.888    3.340    2.788    2.220    1.627
    1.009    0.374   -0.271   -0.917   -1.562   -2.211   -2.879   -3.597
   -4.394   -5.297   -6.328   -7.533   -8.869  -10.273  -11.760
CT1865:285           10.471    9.632    8.726    7.811    6.906    6.051
    5.245    4.493    3.788    3.126    2.485    1.853    1.217    0.567
   -0.096   -0.768   -1.439   -2.098   -2.742   -3.375   -4.011   -4.678
   -5.407   -6.229   -7.166   -8.267   -9.492  -10.783  -12.155
CT1865:280           10.364    9.483    8.518    7.537    6.557    5.618
    4.725    3.885    3.098    2.360    1.657    0.973    0.298   -0.380
   -1.062   -1.745   -2.423   -3.084   -3.726   -4.351   -4.971   -5.612
   -6.304   -7.077   -7.951   -8.974  -10.112  -11.310  -12.580
CT1865:275           10.467    9.507    8.460    7.394    6.327    5.300
    4.322    3.402    2.542    1.745    0.994    0.276   -0.420   -1.106
   -1.787   -2.465   -3.137   -3.793   -4.434   -5.061   -5.682   -6.321
   -7.002   -7.752   -8.591   -9.558  -10.624  -11.739  -12.906
CT1865:270           10.384    9.386    8.290    7.172    6.047    4.962
    3.927    2.956    2.052    1.222    0.449   -0.277   -0.972   -1.645
   -2.309   -2.967   -3.623   -4.273   -4.916   -5.555   -6.197   -6.859
   -7.561   -8.324   -9.162  -10.110  -11.136  -12.200  -13.290
CT1865:265           10.287    9.263    8.131    6.973    5.808    4.683
    3.613    2.612    1.687    0.846    0.073   -0.644   -1.319   -1.967
   -2.601   -3.232   -3.867   -4.508   -5.158   -5.818   -6.495   -7.201
   -7.947   -8.747   -9.611  -10.561  -11.568  -12.596  -13.615
CT1865:260           10.241    9.189    8.024    6.835    5.639    4.489
    3.400    2.389    1.462    0.630   -0.126   -0.818   -1.462   -2.074
   -2.673   -3.273   -3.888   -4.525   -5.188   -5.881   -6.607   -7.375
   -8.187   -9.050   -9.967  -10.948  -11.961  -12.978  -13.947
CT1865:255           10.043    8.999    7.836    6.646    5.449    4.303
    3.223    2.227    1.324    0.522   -0.196   -0.847   -1.447   -2.015
   -2.575   -3.144   -3.742   -4.381   -5.066   -5.802   -6.592   -7.439
   -8.338   -9.286  -10.280  -11.317  -12.363  -13.393  -14.335
CT1865:250           10.038    8.978    7.803    6.603    5.403    4.262
    3.198    2.226    1.354    0.593   -0.080   -0.682   -1.233   -1.755
   -2.275   -2.816   -3.401   -4.048   -4.763   -5.550   -6.411   -7.347
   -8.342   -9.386  -10.466  -11.569  -12.653  -13.703  -14.616
CT1865:245            9.903    8.859    7.698    6.515    5.336    4.224
    3.195    2.265    1.443    0.736    0.120   -0.424   -0.920   -1.393
   -1.874   -2.390   -2.969   -3.633   -4.388   -5.240   -6.186   -7.226
   -8.333   -9.492  -10.680  -11.873  -13.025  -14.123  -15.045
CT1865:240            9.936    8.889    7.732    6.557    5.395    4.311
    3.318    2.433    1.662    1.011    0.455   -0.031   -0.470   -0.895
   -1.340   -1.834   -2.410   -3.096   -3.897   -4.816   -5.851   -6.994
   -8.212   -9.481  -10.771  -12.045  -13.250  -14.382  -15.288
CT1865:235            9.949    8.908    7.765    6.610    5.473    4.425
    3.475    2.640    1.923    1.331    0.834    0.407    0.022   -0.358
   -0.770   -1.248   -1.830   -2.548   -3.403   -4.400   -5.533   -6.790
   -8.130   -9.520  -10.925  -12.298  -13.581  -14.775  -15.704
CT1865:230           10.012    8.979    7.851    6.714    5.605    4.593
    3.686    2.899    2.235    1.699    1.258    0.886    0.551    0.213
   -0.170   -0.636   -1.226   -1.977   -2.888   -3.963   -5.189   -6.552
   -8.002   -9.498  -11.001  -12.451  -13.785  -15.012  -15.929
CT1865:225           10.132    9.101    7.985    6.865    5.779    4.799
    3.929    3.183    2.564    2.074    1.680    1.354    1.060    0.755
    0.392   -0.069   -0.675   -1.465   -2.437   -3.591   -4.913   -6.382
   -7.939   -9.540  -11.139  -12.668  -14.061  -15.331  -16.254
CT1865:220           10.219    9.202    8.105    7.007    5.948    4.998
    4.162    3.452    2.870    2.419    2.063    1.772    1.510    1.229
    0.879    0.417   -0.208   -1.038   -2.068   -3.296   -4.703   -6.263
   -7.912   -9.597  -11.270  -12.854  -14.282  -15.570  -16.475
CT1865:215           10.293    9.298    8.223    7.148    6.113    5.188
    4.377    3.693    3.136    2.709    2.375    2.105    1.861    1.592
    1.243    0.772    0.121   -0.751   -1.837   -3.133   -4.617   -6.257
   -7.983   -9.739  -11.473  -13.103  -14.560  -15.865  -16.757
CT1865:210           10.398    9.421    8.364    7.307    6.289    5.379
    4.581    3.908    3.359    2.937    2.608    2.340    2.096    1.823
    1.464    0.974    0.295   -0.618   -1.754   -3.107   -4.651   -6.351
   -8.131   -9.934  -11.705  -13.356  -14.819  -16.120  -16.982
CT1865:205           10.394    9.459    8.434    7.404    6.406    5.509
    4.718    4.044    3.490    3.057    2.714    2.430    2.168    1.874
    1.491    0.973    0.259   -0.693   -1.873   -3.272   -4.863   -6.606
   -8.424  -10.258  -12.054  -13.719  -15.190  -16.491  -17.340
CT1865:200           10.510    9.597    8.587    7.568    6.575    5.673
    4.868    4.173    3.591    3.125    2.744    2.421    2.119    1.785
    1.364    0.807    0.058   -0.930   -2.143   -3.571   -5.185   -6.945
   -8.773  -10.609  -12.397  -14.047  -15.493  -16.764  -17.569
CT1865:195           10.644    9.749    8.750    7.736    6.739    5.821
    4.991    4.260    3.632    3.113    2.674    2.290    1.928    1.536
    1.060    0.455   -0.338   -1.360   -2.600   -4.047   -5.673   -7.435
   -9.259  -11.086  -12.862  -14.495  -15.924  -17.178  -17.968
CT1865:190           10.768    9.898    8.912    7.903    6.901    5.963
    5.098    4.322    3.637    3.051    2.539    2.080    1.642    1.179
    0.639   -0.022   -0.859   -1.911   -3.168   -4.620   -6.237   -7.979
   -9.773  -11.562  -13.295  -14.880  -16.258  -17.460  -18.195
CT1865:185           11.026   10.158    9.166    8.148    7.125    6.152
    5.241    4.405    3.650    2.983    2.385    1.837    1.311    0.763
    0.147   -0.581   -1.469   -2.556   -3.831   -5.285   -6.889   -8.604
  -10.362  -12.109  -13.796  -15.336  -16.672  -17.835  -18.542
CT1865:180           11.158   10.319    9.342    8.330    7.300    6.301
    5.350    4.460    3.639    2.894    2.211    1.574    0.958    0.323
   -0.373   -1.170   -2.114   -3.238   -4.531   -5.983   -7.567   -9.245
  -10.953  -12.642  -14.265  -15.738  -17.009  -18.108  -18.755
CT1865:175           11.355   10.537    9.570    8.561    7.521    6.496
    5.504    4.561    3.674    2.853    2.088    1.364    0.658   -0.065
   -0.846   -1.719   -2.727   -3.896   -5.216   -6.675   -8.245   -9.889
  -11.551  -13.184  -14.747  -16.159  -17.373  -18.419  -19.024
CT1865:170           11.400   10.624    9.688    8.702    7.673    6.640
    5.627    4.649    3.715    2.837    2.006    1.209    0.427   -0.376
   -1.236   -2.185   -3.257   -4.476   -5.827   -7.294   -8.852  -10.460
  -12.068  -13.636  -15.125  -16.461  -17.600  -18.574  -19.116
CT1865:165           11.539   10.802    9.894    8.929    7.910    6.871
    5.839    4.830    3.855    2.926    2.037    1.176    0.321   -0.560
   -1.502   -2.531   -3.680   -4.963   -6.360   -7.855   -9.417  -11.008
  -12.581  -14.102  -15.536  -16.814  -17.899  -18.821  -19.322
CT1865:160           11.682   10.986   10.112    9.177    8.177    7.144
    6.107    5.082    4.082    3.117    2.183    1.269    0.353   -0.600
   -1.620   -2.732   -3.961   -5.314   -6.768   -8.300   -9.877  -11.459
  -13.007  -14.488  -15.875  -17.100  -18.132  -19.004  -19.460
CT1865:155           11.830   11.177   10.344    9.445    8.476    7.464
    6.438    5.414    4.405    3.420    2.455    1.498    0.528   -0.492
   -1.589   -2.783   -4.095   -5.524   -7.041   -8.619  -10.224  -11.811
  -13.347  -14.803  -16.157  -17.344  -18.339  -19.175  -19.602
CT1865:150           11.973   11.367   10.582    9.731    8.806    7.831
    6.835    5.831    4.831    3.842    2.859    1.869    0.851   -0.231
   -1.403   -2.679   -4.074   -5.581   -7.166   -8.796  -10.435  -12.037
  -13.572  -15.016  -16.347  -17.506  -18.472  -19.279  -19.679
CT1865:145           12.095   11.540   10.812   10.019    9.152    8.233
    7.287    6.325    5.354    4.377    3.388    2.374    1.313    0.168
   -1.078   -2.437   -3.917   -5.503   -7.158   -8.845  -10.526  -12.155
  -13.704  -15.152  -16.480  -17.632  -18.589  -19.388  -19.784
CT1865:140           12.228   11.721   11.052   10.323    9.526    8.677
    7.800    6.898    5.976    5.028    4.045    3.014    1.914    0.709
   -0.613   -2.054   -3.618   -5.283   -7.006   -8.752  -10.478  -12.138
  -13.709  -15.169  -16.504  -17.656  -18.611  -19.405  -19.794
CT1865:135           12.271   11.825   11.228   10.576    9.863    9.105
    8.316    7.498    6.645    5.743    4.782    3.743    2.608    1.344
   -0.053   -1.577   -3.226   -4.969   -6.763   -8.569  -10.347  -12.049
  -13.655  -15.146  -16.508  -17.686  -18.665  -19.484  -19.901
CT1865:130           12.378   11.975   11.439   10.857   10.227    9.561
    8.869    8.144    7.373    6.529    5.597    4.558    3.395    2.075
    0.604   -1.000   -2.728   -4.545   -6.404   -8.265  -10.090  -11.831
  -13.471  -14.993  -16.382  -17.582  -18.580  -19.416  -19.847
CT1865:125           12.404   12.050   11.579   11.070   10.526    9.960
    9.372    8.749    8.069    7.293    6.401    5.370    4.184    2.814
    1.278   -0.400   -2.201   -4.085   -6.001   -7.912   -9.779  -11.559
  -13.236  -14.792  -16.216  -17.450  -18.481  -19.348  -19.808
CT1865:120           12.467   12.144   11.721   11.270   10.799   10.320
    9.827    9.299    8.705    7.996    7.143    6.124    4.922    3.511
    1.918    0.179   -1.682   -3.617   -5.577   -7.524   -9.422  -11.230
  -12.936  -14.524  -15.980  -17.247  -18.310  -19.209  -19.697
CT1865:115           12.540   12.233   11.844   11.435   11.018   10.610
   10.193    9.743    9.222    8.569    7.752    6.744    5.532    4.092
    2.461    0.680   -1.217   -3.180   -5.159   -7.118   -9.023  -10.839
  -12.555  -14.155  -15.626  -16.908  -17.984  -18.891  -19.378
CT1865:110           12.550   12.252   11.883   11.501   11.121   10.759
   10.395    9.998    9.526    8.911    8.117    7.117    5.897    4.440
    2.787    0.988   -0.920   -2.885   -4.858   -6.805   -8.700  -10.510
  -12.228  -13.838  -15.329  -16.639  -17.747  -18.691  -19.217
CT1865:105           12.568   12.264   11.893   11.514   11.142   10.795
   10.449   10.071    9.616    9.012    8.223    7.222    5.999    4.538
    2.888    1.101   -0.784   -2.713   -4.642   -6.542   -8.390  -10.161
  -11.849  -13.442  -14.924  -16.236  -17.348  -18.297  -18.825
CT1865:100           12.523   12.202   11.815   11.418   11.029   10.665
   10.301    9.906    9.433    8.811    8.006    6.992    5.765    4.313
    2.686    0.938   -0.891   -2.750   -4.602   -6.425   -8.201   -9.913
  -11.559  -13.127  -14.602  -15.925  -17.063  -18.044  -18.617
CT1865:095           12.430   12.088   11.669   11.235   10.804   10.392
    9.978    9.530    9.006    8.338    7.497    6.463    5.232    3.801
    2.221    0.541   -1.198   -2.951   -4.690   -6.400   -8.071   -9.694
  -11.269  -12.787  -14.232  -15.548  -16.692  -17.687  -18.286
CT1865:090           12.334   11.952   11.480   10.986   10.487    9.996
    9.499    8.967    8.361    7.623    6.730    5.666    4.434    3.034
    1.517   -0.070   -1.693   -3.313   -4.912   -6.483   -8.026   -9.541
  -11.031  -12.490  -13.900  -15.209  -16.366  -17.388  -18.036
CT1865:085           12.202   11.776   11.239   10.671   10.085    9.496
    8.895    8.257    7.552    6.730    5.776    4.681    3.450    2.093
    0.656   -0.820   -2.306   -3.770   -5.207   -6.620   -8.015   -9.404
  -10.792  -12.175  -13.537  -14.827  -15.987  -17.024  -17.710
CT1865:080           12.068   11.586   10.970   10.316    9.628    8.926
    8.206    7.451    6.637    5.726    4.711    3.588    2.366    1.062
   -0.284   -1.638   -2.974   -4.273   -5.539   -6.783   -8.024   -9.281
  -10.563  -11.868  -13.180  -14.454  -15.622  -16.682  -17.421
CT1865:075           11.831   11.305   10.619    9.881    9.094    8.281
    7.444    6.575    5.658    4.667    3.600    2.460    1.260    0.020
   -1.225   -2.449   -3.631   -4.760   -5.855   -6.933   -8.021   -9.148
  -10.327  -11.556  -12.820  -14.080  -15.260  -16.350  -17.149
CT1865:070           11.678   11.088   10.317    9.485    8.592    7.663
    6.711    5.733    4.720    3.660    2.554    1.411    0.245   -0.923
   -2.060   -3.150   -4.179   -5.145   -6.075   -6.996   -7.940   -8.946
  -10.028  -11.188  -12.408  -13.656  -14.848  -15.966  -16.825
CT1865:065           11.432   10.797    9.956    9.044    8.060    7.033
    5.985    4.917    3.831    2.723    1.600    0.473   -0.643   -1.725
   -2.748   -3.704   -4.585   -5.399   -6.179   -6.960   -7.780   -8.683
   -9.685  -10.789  -11.979  -13.225  -14.440  -15.597  -16.526
CT1865:060           11.276   10.582    9.666    8.674    7.603    6.488
    5.356    4.216    3.076    1.941    0.822   -0.271   -1.323   -2.310
   -3.216   -4.041   -4.784   -5.460   -6.109   -6.770   -7.487   -8.307
   -9.248  -10.312  -11.482  -12.734  -13.976  -15.173  -16.171
CT1865:055           11.246   10.477    9.481    8.407    7.255    6.064
    4.866    3.674    2.501    1.361    0.264   -0.777   -1.751   -2.636
   -3.424   -4.123   -4.739   -5.294   -5.833   -6.398   -7.033   -7.792
   -8.689   -9.726  -10.886  -12.149  -13.416  -14.650  -15.705
CT1865:050           11.107   10.292    9.245    8.120    6.917    5.682
    4.449    3.237    2.062    0.945   -0.105   -1.076   -1.958   -2.734
   -3.406   -3.988   -4.491   -4.946   -5.399   -5.894   -6.477   -7.202
   -8.081   -9.116  -10.289  -11.583  -12.897  -14.188  -15.323
CT1865:045           11.149   10.268    9.162    7.983    6.735    5.469
    4.219    3.007    1.851    0.775   -0.212   -1.101   -1.886   -2.555
   -3.117   -3.593   -4.001   -4.376   -4.766   -5.214   -5.766   -6.476
   -7.354   -8.400   -9.595  -10.924  -12.285  -13.629  -14.834
CT1865:040           11.046   10.138    9.011    7.816    6.561    5.300
    4.069    2.891    1.784    0.777   -0.127   -0.921   -1.604   -2.167
   -2.628   -3.012   -3.344   -3.661   -4.010   -4.435   -4.979   -5.697
   -6.594   -7.670   -8.906  -10.289  -11.715  -13.134  -14.429
CT1865:035           11.022   10.086    8.946    7.745    6.496    5.260
    4.068    2.944    1.907    0.983    0.173   -0.521   -1.102   -1.569
   -1.943   -2.254   -2.530   -2.811   -3.140   -3.561   -4.115   -4.855
   -5.785   -6.905   -8.193   -9.642  -11.146  -12.650  -14.046
CT1865:030           10.961   10.020    8.890    7.708    6.491    5.304
    4.176    3.130    2.182    1.359    0.653    0.062   -0.420   -0.800
   -1.102   -1.357   -1.596   -1.858   -2.184   -2.614   -3.188   -3.959
   -4.929   -6.097   -7.444   -8.963  -10.546  -12.136  -13.631
CT1865:025           10.923    9.985    8.877    7.726    6.556    5.435
    4.386    3.432    2.587    1.872    1.274    0.786    0.395    0.092
   -0.154   -0.370   -0.588   -0.848   -1.183   -1.634   -2.237   -3.047
   -4.063   -5.285   -6.696   -8.291   -9.961  -11.645  -13.244
CT1865:020           10.901    9.976    8.903    7.798    6.689    5.646
    4.689    3.837    3.101    2.498    2.008    1.620    1.314    1.076
    0.875    0.684    0.474    0.206   -0.148   -0.625   -1.262   -2.112
   -3.175   -4.454   -5.930   -7.604   -9.361  -11.138  -12.839
CT1865:015           10.691    9.824    8.823    7.796    6.775    5.833
    4.984    4.246    3.630    3.144    2.765    2.474    2.250    2.071
    1.909    1.737    1.527    1.246    0.868    0.361   -0.313   -1.205
   -2.319   -3.656   -5.201   -6.955   -8.801  -10.671  -12.472
CT1865:010           10.697    9.858    8.908    7.943    6.997    6.144
    5.393    4.760    4.251    3.871    3.591    3.388    3.237    3.110
    2.980    2.821    2.609    2.310    1.907    1.366    0.654   -0.284
   -1.450   -2.849   -4.463   -6.299   -8.235  -10.198  -12.098
CT1865:005           10.477    9.713    8.850    7.977    7.131    6.384
    5.742    5.221    4.822    4.548    4.365    4.248    4.168    4.094
    3.998    3.856    3.643    3.330    2.901    2.327    1.574    0.588
   -0.634   -2.097   -3.783   -5.701   -7.724   -9.776  -11.767
CT1866:360           10.493    9.763    8.957    8.150    7.382    6.721
    6.170    5.742    5.436    5.251    5.152    5.109    5.091    5.067
    5.003    4.880    4.670    4.345    3.892    3.283    2.487    1.447
    0.165   -1.365   -3.125   -5.123   -7.231   -9.371  -11.449
